[gd_scene load_steps=5 format=2]

[ext_resource path="res://Materials/EnemyRed.tres" type="Material" id=1]
[ext_resource path="res://Scenes/Tank/Tank.tscn" type="PackedScene" id=2]
[ext_resource path="res://Scripts/EnemyTank.gd" type="Script" id=3]

[sub_resource type="BoxShape" id=1]
extents = Vector3( 1.94886, 1.38532, 3.37309 )

[node name="EnemyTank" type="Spatial"]
script = ExtResource( 3 )

[node name="Tank" parent="." instance=ExtResource( 2 )]
transform = Transform( -1.62921e-07, 0, 1, 0, 1, 0, -1, 0, -1.62921e-07, 0, 0, 0 )
collision_layer = 32
collision_mask = 0

[node name="Chassis" parent="Tank/Chassis" index="0"]
material/0 = ExtResource( 1 )

[node name="Turret" parent="Tank/Turret" index="0"]
material/0 = ExtResource( 1 )

[node name="CollisionShape" parent="Tank" index="3"]
transform = Transform( 1, 0, 0, 0, 1, 0, 0, 0, 1, 0, 0.331243, 0.0402838 )

[node name="Area" type="Area" parent="Tank"]
collision_layer = 32

[node name="CollisionShape" type="CollisionShape" parent="Tank/Area"]
transform = Transform( 1, 0, 0, 0, 1, 0, 0, 0, 1, 0, 1.45849, 0 )
shape = SubResource( 1 )
[connection signal="body_entered" from="Tank/Area" to="." method="_on_Area_body_entered"]

[editable path="Tank"]

[editable path="Tank/Chassis"]

[editable path="Tank/Turret"]

[editable path="Tank/Turret/Cannon"]
